Content-Type: text/x-zim-wiki
Wiki-Format: zim 0.4
Creation-Date: 2020-03-28T18:58:24+01:00

====== BlogPosts ======
Created Samstag 28 März 2020


* Overview page:
	* https://therealsupermario.gitlab.io/zim_public/
